<?xml version="1.0" encoding="UTF-8"?>
<svg width="128px" height="128px" viewBox="0 0 67 67" version="1.1" xmlns="http://www.w3.org/2000/svg" xmlns:xlink="http://www.w3.org/1999/xlink">
    <title>Little Contact logo</title>
    <g stroke="none" stroke-width="1" fill="none">
        <rect stroke="#FFFFFF" stroke-width="3" x="17.5" y="6.5" width="43" height="59" rx="8"></rect>
        <path d="M60.4893031,54.5 C60.3593113,57.5342876 59.0539266,60.2641953 57.0164579,62.2453953 C55.056406,64.1513167 52.4191455,65.3644445 49.5,65.4893256 L49.5,65.5 L54,65.5 C55.7949254,65.5 57.4199254,64.7724627 58.5961941,63.5961941 C59.7724627,62.4199254 60.5,60.7949254 60.5,59 L60.5,54.5 L60.4893031,54.5 Z" stroke="#FFFFFF" stroke-width="3" fill="#FFFFFF"></path>
        <path d="M49,0 C53.418278,0 57,3.581722 57,8 L57,54 C57,58.418278 53.418278,62 49,62 L18,62 C17.6267657,62 17.2595011,61.9744407 16.899861,61.9249769 C18.5881277,63.2259971 20.7036748,64 23,64 L23,67 C15.9557643,67 10.2201178,61.3972636 10.0061861,54.4049164 L10,54 L12,54 L12.1996403,53.9951047 C14.3160315,53.8910789 16,52.1421954 16,50 C16,47.8578046 14.3160315,46.1089211 12.1996403,46.0048953 L12,46 L10,46 L10,41 L12,41 L12.1996403,40.9951047 C14.3160315,40.8910789 16,39.1421954 16,37 C16,34.8578046 14.3160315,33.1089211 12.1996403,33.0048953 L12,33 L10,33 L10,28 L12,28 L12.1996403,27.9951047 C14.3160315,27.8910789 16,26.1421954 16,24 C16,21.8578046 14.3160315,20.1089211 12.1996403,20.0048953 L12,20 L10,20 L10,15 L12,15 L12.1996403,14.9951047 C14.3160315,14.8910789 16,13.1421954 16,11 C16,8.85780461 14.3160315,7.10892112 12.1996403,7.00489531 L12,7 L10.0618877,7.00004872 C10.5539641,3.05371356 13.9203656,0 18,0 L49,0 Z" fill="#FFFFFF"></path>
        <path d="M12,8 C13.6568542,8 15,9.34314575 15,11 C15,12.5976809 13.75108,13.9036609 12.1762728,13.9949073 L11.9989971,14 L11.9989971,14 L12,14.001 L9,14 L9,18 L8.78311038,17.9953805 C6.12230671,17.8818181 4,15.6887547 4,13 C4,10.2385763 6.23857625,8 9,8 L12,8 Z" fill="#FFFFFF"></path>
        <path d="M12,21 C13.6568542,21 15,22.3431458 15,24 C15,25.5976809 13.75108,26.9036609 12.1762728,26.9949073 L11.9989971,27 L11.9989971,27 L12,27.001 L9,27 L9,31 L8.78311038,30.9953805 C6.12230671,30.8818181 4,28.6887547 4,26 C4,23.2385763 6.23857625,21 9,21 L12,21 Z" fill="#FFFFFF"></path>
        <path d="M12,34 C13.6568542,34 15,35.3431458 15,37 C15,38.5976809 13.75108,39.9036609 12.1762728,39.9949073 L11.9989971,40 L11.9989971,40 L12,40.001 L9,40 L9,44 L8.78311038,43.9953805 C6.12230671,43.8818181 4,41.6887547 4,39 C4,36.2385763 6.23857625,34 9,34 L12,34 Z" fill="#FFFFFF"></path>
        <path d="M12,47 C13.6568542,47 15,48.3431458 15,50 C15,51.5976809 13.75108,52.9036609 12.1762728,52.9949073 L11.9989971,53 L11.9989971,53 L12,53.001 L9,53 L9,57 L8.78311038,56.9953805 C6.12230671,56.8818181 4,54.6887547 4,52 C4,49.2385763 6.23857625,47 9,47 L12,47 Z" fill="#FFFFFF"></path>
    </g>
</svg>
